[gd_scene load_steps=4 format=2]

[ext_resource path="res://Assets/Fonts/text.tres" type="DynamicFont" id=1]
[ext_resource path="res://Scenes/Menus/Pause/Pause.gd" type="Script" id=2]
[ext_resource path="res://Assets/Fonts/title.tres" type="DynamicFont" id=3]

[node name="Pause" type="Control"]
pause_mode = 2
anchor_right = 1.0
anchor_bottom = 1.0
script = ExtResource( 2 )
__meta__ = {
"_edit_use_anchors_": false
}

[node name="Title" type="Label" parent="."]
anchor_left = 0.5
anchor_top = 0.5
anchor_right = 0.5
anchor_bottom = 0.5
margin_left = -71.0
margin_top = -141.813
margin_right = 71.0
margin_bottom = -83.8126
custom_fonts/font = ExtResource( 3 )
custom_colors/font_color = Color( 1, 0, 0, 1 )
text = "Pause"
align = 1
valign = 1
__meta__ = {
"_edit_use_anchors_": false
}

[node name="PauseRect" type="ColorRect" parent="."]
anchor_left = 0.5
anchor_top = 0.5
anchor_right = 0.5
anchor_bottom = 0.5
margin_left = -114.0
margin_top = -52.0
margin_right = 114.0
margin_bottom = 52.0
color = Color( 0, 0, 0, 0.396078 )
__meta__ = {
"_edit_use_anchors_": false
}

[node name="CommandsBox" type="VBoxContainer" parent="PauseRect"]
anchor_right = 1.0
anchor_bottom = 1.0
custom_constants/separation = 20
alignment = 1
__meta__ = {
"_edit_use_anchors_": false
}

[node name="PlayBtn" type="Button" parent="PauseRect/CommandsBox"]
margin_top = 5.0
margin_right = 228.0
margin_bottom = 42.0
custom_fonts/font = ExtResource( 1 )
text = "Resume Game"
flat = true

[node name="TitleBtn" type="Button" parent="PauseRect/CommandsBox"]
margin_top = 62.0
margin_right = 228.0
margin_bottom = 99.0
custom_fonts/font = ExtResource( 1 )
text = "Back to Title"
flat = true
[connection signal="pressed" from="PauseRect/CommandsBox/PlayBtn" to="." method="_on_PlayBtn_pressed"]
[connection signal="pressed" from="PauseRect/CommandsBox/TitleBtn" to="." method="_on_TitleBtn_pressed"]
